[
  {
    "relation": ["delegate_permission/common.handle_all_urls"],
    "target": {
      "namespace": "android_app",
      "package_name": "com.cantaigreja",
      "sha256_cert_fingerprints":
        ["FB:46:71:1F:BA:4A:BD:6D:5D:EB:C8:FD:74:04:02:09:EC:D7:95:05:0B:91:CF:96:95:0A:FC:E3:7F:81:82:84"]
    }
  }
]