<svg xmlns="http://www.w3.org/2000/svg" fill="none" viewBox="0 0 901 903">
  <path fill="#fff" fill-rule="evenodd" stroke="#6A8AC7" stroke-width="12.3" d="M598 76c-2 0-4-2-4-5V10a4 4 0 0 1 9 0v61c0 3-2 5-5 5Z" clip-rule="evenodd"/>
  <path fill="#fff" fill-rule="evenodd" stroke="#6A8AC7" stroke-width="12.3" d="M619 36h-41a4 4 0 1 1 0-8h41a4 4 0 1 1 0 8Z" clip-rule="evenodd"/>
  <path fill="#fff" fill-rule="evenodd" stroke="#6A8AC7" stroke-linecap="round" stroke-linejoin="bevel" stroke-width="16.9" d="M637 156h-78l39-68 39 68Z" clip-rule="evenodd"/>
  <path fill="#fff" fill-rule="evenodd" stroke="#6A8AC7" stroke-linejoin="round" stroke-width="15" d="M558 158h81l-41-77-40 77Zm87 9h-94a4 4 0 0 1-3-6l47-91a4 4 0 0 1 7 0l47 91a4 4 0 0 1-4 6Z" clip-rule="evenodd"/>
  <path fill="#fff" fill-rule="evenodd" stroke="#6A8AC7" stroke-linecap="round" stroke-linejoin="bevel" stroke-width="12.3" d="m690 480 186 80-8 314-177 4-1-398Z" clip-rule="evenodd"/>
  <path fill="#fff" fill-rule="evenodd" stroke="#6A8AC7" stroke-width="18" d="M691 878h185V560l-185-91v409Zm192 15H683c-4 0-8-3-8-7V457a8 8 0 0 1 12-7l200 99c2 1 4 4 4 7v330c0 4-3 7-8 7Z" clip-rule="evenodd"/>
  <path fill="#fff" fill-rule="evenodd" stroke="#6A8AC7" stroke-linecap="round" stroke-linejoin="bevel" stroke-width="10.8" d="m495 883-275 7-2-459 171-76 105 50 1 478Z" clip-rule="evenodd"/>
  <path fill="#fff" fill-rule="evenodd" stroke="#6A8AC7" stroke-width="18" d="M25 879h185V493L25 579v300Zm192 14H17c-4 0-8-3-8-7V574c0-2 2-5 5-6l200-94c2-1 5-1 7 1 3 1 4 3 4 6v405c0 4-3 7-8 7Z" clip-rule="evenodd"/>
  <path fill="#fff" fill-rule="evenodd" stroke="#6A8AC7" stroke-linejoin="round" stroke-miterlimit="5" stroke-width="7.4" d="m25 585 185-99v393H25V585Z" clip-rule="evenodd"/>
  <path fill="#fff" fill-rule="evenodd" stroke="#6A8AC7" stroke-width="18" d="M25 570v2l185-86v-2L25 570Zm-8 21-4-1c-2-1-4-4-4-6v-19c0-3 2-5 5-6l200-94h7c3 2 4 4 4 7v18c0 3-2 6-4 7L20 590l-3 1Z" clip-rule="evenodd"/>
  <path fill="#fff" fill-rule="evenodd" stroke="#6A8AC7" stroke-width="20" d="M526 248v127h145V248H526Z" clip-rule="evenodd"/>
  <path fill="#fff" fill-rule="evenodd" stroke="#6A8AC7" stroke-width="7.4" d="M578 359h44v-61c0-11-9-20-21-20h-3c-11 0-20 9-20 20v61Zm47 8h-51c-2 0-3-2-3-4v-65c0-15 12-27 27-27h3c16 0 28 12 28 27v65c0 2-2 4-4 4Z" clip-rule="evenodd"/>
  <path fill="#fff" fill-rule="evenodd" stroke="#6A8AC7" stroke-width="20" d="M560 172v76h76v-76h-76Z" clip-rule="evenodd"/>
  <path fill="#fff" fill-rule="evenodd" d="m202 435 197-80Z" clip-rule="evenodd"/>
  <path stroke="#6A8AC7" stroke-width="44.7" d="m202 435 197-80"/>
  <path fill="#fff" fill-rule="evenodd" d="M575 431v40Z" clip-rule="evenodd"/>
  <path stroke="#6A8AC7" stroke-width="17.2" d="M575 431v40"/>
  <path fill="#fff" fill-rule="evenodd" d="M218 431v40Z" clip-rule="evenodd"/>
  <path stroke="#6A8AC7" stroke-width="17.2" d="M218 431v40"/>
  <path fill="#fff" fill-rule="evenodd" d="M220 889h288Z" clip-rule="evenodd"/>
  <path stroke="#6A8AC7" stroke-width="26" d="M220 889h288"/>
  <path fill="#fff" fill-rule="evenodd" stroke="#6A8AC7" stroke-width="26" d="M290 637v252h148V637H290Z" clip-rule="evenodd"/>
  <path fill="#fff" fill-rule="evenodd" stroke="#6A8AC7" stroke-width="20" d="M738 605v156h91V605h-91Zm-666 0v156h91V605H72Z" clip-rule="evenodd"/>
  <path fill="#fff" stroke="#6A8AC7" stroke-linecap="round" stroke-linejoin="bevel" stroke-width="12.3" d="M675 383H516v495h159V383Z"/>
  <path fill="#fff" fill-rule="evenodd" stroke="#6A8AC7" stroke-width="18" d="M516 878h159V383H516v495Zm167 15H508c-4 0-8-3-8-7V375c0-4 4-8 8-8h175c4 0 8 4 8 8v511c0 4-4 7-8 7Z" clip-rule="evenodd"/>
  <path fill="#fff" fill-rule="evenodd" stroke="#6A8AC7" stroke-width="18" d="m691 462 185 91v-2l-185-92v3Zm192 111-3-1-200-99c-3-1-5-4-5-7v-19a8 8 0 0 1 12-7l200 99c2 1 4 4 4 7v19a8 8 0 0 1-8 8Z" clip-rule="evenodd"/>
  <path fill="#fff" fill-rule="evenodd" d="m586 435-204-80Z" clip-rule="evenodd"/>
  <path stroke="#6A8AC7" stroke-width="45.7" d="m586 435-204-80"/>
</svg>
